/home/wpsigoui/Documents/Courses/CS686/A4/venv/bin/python /home/wpsigoui/Documents/Courses/CS686/A4/parse_results.py
0.0

0.84
0.84
0.84
0.84
0.84
0.84
0.84
0.84
0.84
0.84
0.84
0.84
0.84
0.84
0.84
0.84
0.84
0.84
0.84
0.84
0.2

0.7
0.79
0.7
0.7
0.84
0.79
0.7
0.79
0.7
0.78
0.7
0.7
0.7
0.78
0.68
0.78
0.78
0.78
0.7
0.78
0.4

0.78
0.93
0.7
0.7
0.7
0.7
0.7
0.78
0.79
0.78
0.7
0.7
0.7
0.79
0.79
0.78
0.7
0.93
0.68
0.7
0.6000000000000001

0.79
0.7
0.78
0.7
0.79
0.7
0.7
0.7
0.78
0.84
0.7
0.93
0.7
0.68
0.78
0.78
0.7
0.7
0.79
0.7
0.8

0.78
0.7
0.79
0.76
0.7
0.78
0.78
0.7
0.77
0.78
0.79
0.78
0.78
0.79
0.79
0.79
0.7
0.7
0.79
0.78
1.0

0.79
0.78
0.79
0.78
0.79
0.78
0.79
0.78
0.7
0.7
0.79
0.84
0.79
0.7
0.7
0.93
0.79
0.7
0.81
0.78
1.2000000000000002

0.7
0.79
0.42
0.79
0.7
0.79
0.7
0.81
0.79
0.7
0.79
0.79
0.81
0.52
0.79
0.79
0.78
0.78
0.7
0.79
1.4000000000000001

0.7
0.78
0.78
0.79
0.79
0.79
0.78
0.79
0.7
0.79
0.78
0.81
0.79
0.7
0.7
0.79
0.68
0.7
0.77
0.7
1.6

0.84
0.68
0.79
0.79
0.7
0.7
0.42
0.78
0.79
0.7
0.52
0.78
0.7
0.83
0.7
0.68
0.84
0.7
0.78
0.78
1.8

0.79
0.79
0.77
0.38
0.49
0.79
0.79
0.7
0.7
0.78
0.45
0.79
0.74
0.79
0.79
0.78
0.79
0.48
0.78
0.79
2.0

0.81
0.22
0.7
0.81
0.79
0.77
0.79
0.79
0.79
0.7
0.5
0.79
0.48
0.41
0.79
0.79
0.77
0.77
0.78
0.78
2.2

0.78
0.7
0.45
0.52
0.79
0.91
0.74
0.79
0.79
0.74
0.45
0.77
0.78
0.44
0.45
0.42
0.78
0.7
0.68
0.79
2.4000000000000004

0.79
0.78
0.7
0.45
0.22
0.44
0.38
0.79
0.88
0.79
0.93
0.79
0.22
0.77
0.78
0.79
0.48
0.06
0.46
0.7
2.6

0.79
0.45
0.46
0.79
0.48
0.79
0.78
0.78
0.78
0.74
0.84
0.52
0.03
0.79
0.79
0.04
0.78
0.56
0.77
0.06
2.8000000000000003

0.55
0.79
0.5
0.79
0.64
0.28
0.78
0.78
0.79
0.87
0.17
0.28
0.43
0.44
0.45
0.68
0.79
0.95
0.44
0.44
3.0

0.17
0.79
0.79
0.48
0.78
0.74
0.81
0.81
0.72
0.77
0.5
0.49
0.03
0.79
0.79
0.79
0.44
0.03
0.79
0.5
3.2

0.03
0.79
0.22
0.17
0.77
0.48
0.07
0.7
0.01
0.78
0.78
0.18
0.79
0.38
0.79
0.49
0.79
0.77
0.87
0.38
3.4000000000000004

0.01
0.55
0.2
0.74
0.7
0.52
0.78
0.52
0.44
0.78
0.77
0.79
0.79
0.5
0.79
0.44
0.38
0.79
0.68
0.47
3.6

0.5
0.38
0.81
0.79
0.06
0.04
0.44
0.78
0.7
0.43
0.7
0.79
0.2
0.42
0.46
0.48
0.79
0.74
0.79
0.45
3.8000000000000003

0.33
0.77
0.77
0.48
0.11
0.76
0.78
0.01
0.78
0.7
0.79
0.68
0.49
0.5
0.25
0.78
0.06
0.79
0.31
0.68

Process finished with exit code 0
