1   1
1   2
1   3
1   4
2   2
3   3
4   1
4   3
4   4
5   1
5   2
5   4
6   1
6   3
8   2
9   1
9   3
9   4
10  1
10  2
10  3
11  4
12  1
12  2
12  3
13  1
13  4
14  1
14  2
15  1
15  2
15  4
16  1
17  1
17  2
17  4
18  2
